* disable routing to views directly
** validation not validate image if not sent!!
*pagination?
* messages
***

$data = array('forumId' => '5','forumStatus'=>'Not Accept',
    'topics' => array(
        array('id' => 1, 'title' => 'women', 'body' => 'lorem epsom lorem epsom', 'status' => 'Not Accept', 'stickiness' => 'sticky', 'forumId' => '1', 'userId' => '5', 'forumName' => 'Hamada', 'userName' => 'Mouneer', 'replies' => array(
                array('id' => 1, 'body' => 'asdasda asdasd asdasd', 'topicId' => '1', 'userId' => '3'),
                array('id' => 1, 'body' => 'asdasda asdasd asdasd', 'topicId' => '1', 'userId' => '3'),
                array('id' => 1, 'body' => 'asdasda asdasd asdasd', 'topicId' => '1', 'userId' => '3'),
            )
        ),
        array('id' => 1, 'title' => 'women', 'body' => 'lorem epsom lorem epsom', 'status' => 'Not Accept', 'stickiness' => 'sticky', 'forumId' => '1', 'userId' => '5', 'forumName' => 'Hamada', 'userName' => 'Mouneer', 'replies' => array(
                array('id' => 1, 'body' => 'asdasda asdasd asdasd', 'topicId' => '1', 'userId' => '3'),
                array('id' => 1, 'body' => 'asdasda asdasd asdasd', 'topicId' => '1', 'userId' => '3'),
                array('id' => 1, 'body' => 'asdasda asdasd asdasd', 'topicId' => '1', 'userId' => '3'),
            )
        ),
        array('id' => 1, 'title' => 'women', 'body' => 'lorem epsom lorem epsom', 'status' => 'Not Accept', 'stickiness' => 'sticky', 'forumId' => '1', 'userId' => '5', 'forumName' => 'Hamada', 'userName' => 'Mouneer', 'replies' => array(
                array('id' => 1, 'body' => 'asdasda asdasd asdasd', 'topicId' => '1', 'userId' => '3'),
                array('id' => 1, 'body' => 'asdasda asdasd asdasd', 'topicId' => '1', 'userId' => '3'),
                array('id' => 1, 'body' => 'asdasda asdasd asdasd', 'topicId' => '1', 'userId' => '3'),
            )
        ),
        ));
***
        ?><pre><?php
        var_dump($subForumModel->getSubForumName($topic['forumId']));
        ?></pre><?php
        exit();
************
$data = array('categories' => array(
        array('id' => 1, 'name' => 'women', 'status' => 'Not Accept', 'subForums' => array(
                array('id' => 1, 'name' => 'subForum1', 'status' => 'Not Accept'),
                array('id' => 2, 'name' => 'subForum2', 'status' => 'Accept'),
                array('id' => 3, 'name' => 'subForum3', 'status' => 'Accept')
            )
        ),
        array('id' => 1, 'name' => 'women', 'status' => 'Accept', 'subForums' => array(
                array('id' => 1, 'name' => 'subForum1', 'status' => 'Not Accept'),
                array('id' => 2, 'name' => 'subForum2', 'status' => 'Accept'),
                array('id' => 3, 'name' => 'subForum3', 'status' => 'Accept')
            )
        ),
        array('id' => 1, 'name' => 'women', 'status' => 'Accept', 'subForums' => array(
                array('id' => 1, 'name' => 'subForum1', 'status' => 'Not Accept'),
                array('id' => 2, 'name' => 'subForum2', 'status' => 'Accept'),
                array('id' => 3, 'name' => 'subForum3', 'status' => 'Accept')
            )
        )
    )
    );
***********************